{
    "data": [
        {
            "category": "Electronics",
            "created_at": "2026-03-14T10:25:34.616007Z",
            "description": "RGB mechanical gaming keyboard",
            "id": 21,
            "image_url": "https://via.placeholder.com/300",
            "name": "Mechanical Keyboard",
            "price": 89.99,
            "rating": 4.8,
            "reviews_count": 45,
            "stock": 30
        },
        {
            "category": "Electronics",
            "created_at": "2026-03-14T10:15:51.794684Z",
            "description": "RGB mechanical gaming keyboard",
            "id": 20,
            "image_url": "https://via.placeholder.com/300",
            "name": "Mechanical Keyboard",
            "price": 89.99,
            "rating": 4.8,
            "reviews_count": 45,
            "stock": 30
        },
        {
            "category": "Electronics",
            "created_at": "2026-03-14T08:36:23.404181Z",
            "description": "RGB mechanical gaming keyboard",
            "id": 19,
            "image_url": "https://via.placeholder.com/300",
            "name": "Mechanical Keyboard",
            "price": 89.99,
            "rating": 4.8,
            "reviews_count": 45,
            "stock": 30
        },
        {
            "category": "Electronics",
            "created_at": "2026-03-13T14:52:10.452497Z",
            "description": "RGB mechanical gaming keyboard",
            "id": 18,
            "image_url": "https://via.placeholder.com/300",
            "name": "Mechanical Keyboard",
            "price": 89.99,
            "rating": 4.8,
            "reviews_count": 45,
            "stock": 30
        },
        {
            "category": "Electronics",
            "created_at": "2026-03-13T14:47:41.995188Z",
            "description": "RGB mechanical gaming keyboard",
            "id": 17,
            "image_url": "https://via.placeholder.com/300",
            "name": "Mechanical Keyboard",
            "price": 89.99,
            "rating": 4.8,
            "reviews_count": 45,
            "stock": 30
        },
        {
            "category": "Electronics",
            "created_at": "2026-03-13T14:15:19.256132Z",
            "description": "RGB mechanical gaming keyboard",
            "id": 16,
            "image_url": "https://via.placeholder.com/300",
            "name": "Mechanical Keyboard",
            "price": 89.99,
            "rating": 4.8,
            "reviews_count": 45,
            "stock": 30
        },
        {
            "category": "Electronics",
            "created_at": "2026-03-13T11:58:58.903341Z",
            "description": "RGB mechanical gaming keyboard",
            "id": 15,
            "image_url": "https://via.placeholder.com/300",
            "name": "Mechanical Keyboard",
            "price": 89.99,
            "rating": 4.8,
            "reviews_count": 45,
            "stock": 30
        },
        {
            "category": "Electronics",
            "created_at": "2026-03-13T11:58:08.247142Z",
            "description": "RGB mechanical gaming keyboard",
            "id": 14,
            "image_url": "https://via.placeholder.com/300",
            "name": "Mechanical Keyboard",
            "price": 89.99,
            "rating": 4.8,
            "reviews_count": 45,
            "stock": 30
        },
        {
            "category": "Electronics",
            "created_at": "2026-03-13T11:57:42.501432Z",
            "description": "RGB mechanical gaming keyboard",
            "id": 13,
            "image_url": "https://via.placeholder.com/300",
            "name": "Mechanical Keyboard",
            "price": 89.99,
            "rating": 4.8,
            "reviews_count": 45,
            "stock": 30
        },
        {
            "category": "Electronics",
            "created_at": "2026-03-13T10:48:08.038184Z",
            "description": "RGB mechanical gaming keyboard",
            "id": 12,
            "image_url": "https://via.placeholder.com/300",
            "name": "Mechanical Keyboard",
            "price": 89.99,
            "rating": 4.8,
            "reviews_count": 45,
            "stock": 30
        },
        {
            "category": "Electronics",
            "created_at": "2026-03-13T10:47:25.966155Z",
            "description": "RGB mechanical gaming keyboard",
            "id": 11,
            "image_url": "https://via.placeholder.com/300",
            "name": "Mechanical Keyboard",
            "price": 89.99,
            "rating": 4.8,
            "reviews_count": 45,
            "stock": 30
        },
        {
            "category": "Electronics",
            "created_at": "2026-03-13T10:29:34.885145Z",
            "description": "RGB mechanical gaming keyboard",
            "id": 10,
            "image_url": "https://via.placeholder.com/300",
            "name": "Mechanical Keyboard",
            "price": 89.99,
            "rating": 4.8,
            "reviews_count": 45,
            "stock": 30
        },
        {
            "category": "Electronics",
            "created_at": "2026-03-13T10:28:27.511811Z",
            "description": "RGB mechanical gaming keyboard",
            "id": 9,
            "image_url": "https://via.placeholder.com/300",
            "name": "Mechanical Keyboard",
            "price": 89.99,
            "rating": 4.8,
            "reviews_count": 45,
            "stock": 30
        },
        {
            "category": "Electronics",
            "created_at": "2026-03-13T10:27:18.085011Z",
            "description": "RGB mechanical gaming keyboard",
            "id": 8,
            "image_url": "https://via.placeholder.com/300",
            "name": "Mechanical Keyboard",
            "price": 89.99,
            "rating": 4.8,
            "reviews_count": 45,
            "stock": 30
        },
        {
            "category": "Electronics",
            "created_at": "2026-03-13T10:15:20.556640Z",
            "description": "RGB mechanical gaming keyboard",
            "id": 7,
            "image_url": "https://via.placeholder.com/300",
            "name": "Mechanical Keyboard",
            "price": 89.99,
            "rating": 4.8,
            "reviews_count": 45,
            "stock": 30
        },
        {
            "category": "Electronics",
            "created_at": "2026-03-13T10:15:07.504200Z",
            "description": "RGB mechanical gaming keyboard",
            "id": 6,
            "image_url": "https://via.placeholder.com/300",
            "name": "Mechanical Keyboard",
            "price": 89.99,
            "rating": 4.8,
            "reviews_count": 45,
            "stock": 30
        },
        {
            "category": "Electronics",
            "description": "1080p HD webcam with microphone",
            "id": 5,
            "image_url": "https://via.placeholder.com/300x300?text=Webcam",
            "name": "Webcam HD",
            "price": 59.99,
            "rating": 4.3,
            "reviews_count": 18,
            "stock": 15
        },
        {
            "category": "Accessories",
            "description": "Adjustable aluminum laptop stand",
            "id": 4,
            "image_url": "https://via.placeholder.com/300x300?text=Stand",
            "name": "Laptop Stand",
            "price": 45.0,
            "rating": 4.6,
            "reviews_count": 34,
            "stock": 25
        },
        {
            "category": "Accessories",
            "description": "Fast charging USB-C cable 2m",
            "id": 3,
            "image_url": "https://via.placeholder.com/300x300?text=Cable",
            "name": "USB-C Cable",
            "price": 12.99,
            "rating": 4.2,
            "reviews_count": 12,
            "stock": 100
        },
        {
            "category": "Electronics",
            "description": "RGB mechanical gaming keyboard",
            "id": 2,
            "image_url": "https://via.placeholder.com/300x300?text=Keyboard",
            "name": "Mechanical Keyboard",
            "price": 89.99,
            "rating": 4.8,
            "reviews_count": 45,
            "stock": 30
        }
    ],
    "meta": {
        "page": 1,
        "per_page": 20,
        "total": 21,
        "total_pages": 2
    }
}